Data Analysis and Visualisation in R for Ecologists: SQL databases and R
…
R

plots %>%
  filter(plot_id == 1) %>%
  inner_join(surveys) %>%
  collect()

OUTPUT

#> Joining with `by = join_by(plot_id)`

OUTPUT

#> # A tibble: 1,995 × 10
#>    plot_id plot_type         record_id month   day  year species_id sex  
#>      <int> <chr>                 <int> <int> <int> <int> <chr>      <chr>
#>  1       1 Spectab exclosure         6     7    16  1977 PF         M    
#>  2       1 Spectab exclosure         8     7    16  1977 DM         M    
#>  3       1 Spectab exclosure         9     7    16  1977 DM         F    
#>  4       1 Spectab exclosure        78     8    19  1977 PF         M    
#>  5       1 Spectab exclosure        80     8    19  1977 DS         M    
#>  6       1 Spectab exclosure       218     9    13  1977 PF         M    
#>  7       1 Spectab exclosure       222     9    13  1977 DS         M    
#>  8       1 Spectab exclosure       239     9    13  1977 DS         M    
#>  9       1 Spectab exclosure       263    10    16  1977 DM         M    
#> 10       1 Spectab exclosure       270    10    16  1977 DM         F    
#> # ℹ 1,985 more rows
#> # ℹ 2 more variables: hindfoot_length <int>, weight <int>
…
