Data Analysis and Visualization in R for Ecologists: Working with data
…
select()

To use the select() function, the first argument is the
name of the data.frame, and the rest of the arguments are
unquoted names of the columns you want:

R

select(surveys, plot_id, species_id, hindfoot_length)

OUTPUT

# A tibble: 16,878 × 3
   plot_id species_id hindfoot_length
     <dbl> <chr>                <dbl>
 1       2 NL                      32
 2       3 NL                      33
 3       2 DM                      37
 4       7 DM                      36
 5       3 DM                      35
 6       1 PF                      14
 7       2 PE                      NA
 8       1 DM                      37
 9       1 DM                      34
10       6 PF                      20
# ℹ 16,868 more rows

The columns are arranged in the order we specified inside
select().

To select all columns except specific columns, put a -
in front of the column you want to exclude:

R

select(surveys, -record_id, -year)

OUTPUT

# A tibble: 16,878 × 11
   month   day plot_id species_id sex   hindfoot_length weight genus     species
   <dbl> <dbl>   <dbl> <chr>      <chr>           <dbl>  <dbl> <chr>     <chr>
 1     7    16       2 NL         M                  32     NA Neotoma   albigu…
 2     7    16       3 NL         M                  33     NA Neotoma   albigu…
 3     7    16       2 DM         F                  37     NA Dipodomys merria…
 4     7    16       7 DM         M                  36     NA Dipodomys merria…
 5     7    16       3 DM         M                  35     NA Dipodomys merria…
 6     7    16       1 PF         M                  14     NA Perognat… flavus
 7     7    16       2 PE         F                  NA     NA Peromysc… eremic…
 8     7    16       1 DM         M                  37     NA Dipodomys merria…
 9     7    16       1 DM         F                  34     NA Dipodomys merria…
10     7    16       6 PF         F                  20     NA Perognat… flavus
# ℹ 16,868 more rows
# ℹ 2 more variables: taxa <chr>, plot_type <chr>

select() also works with numeric vectors for the order
of the columns. To select the 3rd, 4th, 5th, and 10th columns, we could
run the following code:

R

select(surveys, c(3:5, 10))

OUTPUT

# A tibble: 16,878 × 4
     day  year plot_id genus
   <dbl> <dbl>   <dbl> <chr>
 1    16  1977       2 Neotoma
 2    16  1977       3 Neotoma
 3    16  1977       2 Dipodomys
 4    16  1977       7 Dipodomys
 5    16  1977       3 Dipodomys
 6    16  1977       1 Perognathus
 7    16  1977       2 Peromyscus
 8    16  1977       1 Dipodomys
 9    16  1977       1 Dipodomys
10    16  1977       6 Perognathus
# ℹ 16,868 more rows
…
Finally, you can select columns based on whether they match a certain
criteria by using the where() function. If we want all
numeric columns, we can ask to select all the columns
where the class is numeric:

R

select(surveys, where(is.numeric))

OUTPUT

# A tibble: 16,878 × 7
   record_id month   day  year plot_id hindfoot_length weight
       <dbl> <dbl> <dbl> <dbl>   <dbl>           <dbl>  <dbl>
 1         1     7    16  1977       2              32     NA
 2         2     7    16  1977       3              33     NA
 3         3     7    16  1977       2              37     NA
 4         4     7    16  1977       7              36     NA
 5         5     7    16  1977       3              35     NA
 6         6     7    16  1977       1              14     NA
 7         7     7    16  1977       2              NA     NA
 8         8     7    16  1977       1              37     NA
 9         9     7    16  1977       1              34     NA
10        10     7    16  1977       6              20     NA
# ℹ 16,868 more rows
Instead of giving names or positions of columns, we instead pass the
where() function with the name of another function inside
it, in this case is.numeric(), and we get all the columns
for which that function returns TRUE.

We can use this to select any columns that have any NA
values in them:

R

select(surveys, where(anyNA))

OUTPUT

# A tibble: 16,878 × 7
   species_id sex   hindfoot_length weight genus       species  taxa
   <chr>      <chr>           <dbl>  <dbl> <chr>       <chr>    <chr>
 1 NL         M                  32     NA Neotoma     albigula Rodent
 2 NL         M                  33     NA Neotoma     albigula Rodent
 3 DM         F                  37     NA Dipodomys   merriami Rodent
 4 DM         M                  36     NA Dipodomys   merriami Rodent
 5 DM         M                  35     NA Dipodomys   merriami Rodent
 6 PF         M                  14     NA Perognathus flavus   Rodent
 7 PE         F                  NA     NA Peromyscus  eremicus Rodent
 8 DM         M                  37     NA Dipodomys   merriami Rodent
 9 DM         F                  34     NA Dipodomys   merriami Rodent
10 PF         F                  20     NA Perognathus flavus   Rodent
# ℹ 16,868 more rows

filter()

The filter() function is used to select rows that meet
certain criteria. To get all the rows where the value of
year is equal to 1985, we would run the following:

R

filter(surveys, year == 1985)

OUTPUT

# A tibble: 1,438 × 13
   record_id month   day  year plot_id species_id sex   hindfoot_length weight
       <dbl> <dbl> <dbl> <dbl>   <dbl> <chr>      <chr>           <dbl>  <dbl>
 1      9790     1    19  1985      16 RM         F                  16      4
 2      9791     1    19  1985      17 OT         F                  20     16
 3      9792     1    19  1985       6 DO         M                  35     48
 4      9793     1    19  1985      12 DO         F                  35     40
 5      9794     1    19  1985      24 RM         M                  16      4
 6      9795     1    19  1985      12 DO         M                  34     48
 7      9796     1    19  1985       6 DM         F                  37     35
 8      9797     1    19  1985      14 DM         M                  36     45
 9      9798     1    19  1985       6 DM         F                  36     38
10      9799     1    19  1985      19 RM         M                  16      4
# ℹ 1,428 more rows
# ℹ 4 more variables: genus <chr>, species <chr>, taxa <chr>, plot_type <chr>

The == sign means “is equal to”. There are several other
operators we can use: >, >=, <, <=, and != (not equal to).
Another useful operator is %in%, which asks if the value on
the lefthand side is found anywhere in the vector on the righthand side.
For example, to get rows with specific species_id values,
we could run:

R

filter(surveys, species_id %in% c("RM", "DO"))

OUTPUT

# A tibble: 2,835 × 13
   record_id month   day  year plot_id species_id sex   hindfoot_length weight
       <dbl> <dbl> <dbl> <dbl>   <dbl> <chr>      <chr>           <dbl>  <dbl>
 1        68     8    19  1977       8 DO         F                  32     52
 2       292    10    17  1977       3 DO         F                  36     33
 3       294    10    17  1977       3 DO         F                  37     50
 4       311    10    17  1977      19 RM         M                  18     13
 5       317    10    17  1977      17 DO         F                  32     48
 6       323    10    17  1977      17 DO         F                  33     31
 7       337    10    18  1977       8 DO         F                  35     41
 8       356    11    12  1977       1 DO         F                  32     44
 9       378    11    12  1977       1 DO         M                  33     48
10       397    11    13  1977      17 RM         F                  16      7
# ℹ 2,825 more rows
# ℹ 4 more variables: genus <chr>, species <chr>, taxa <chr>, plot_type <chr>

We can also use multiple conditions in one filter()
statement. Here we will get rows with a year less than or equal to 1988
and whose hindfoot length values are not NA. The
! before the is.na() function means “not”.

R

filter(surveys, year <= 1988 & !is.na(hindfoot_length))

OUTPUT

# A tibble: 12,779 × 13
   record_id month   day  year plot_id species_id sex   hindfoot_length weight
       <dbl> <dbl> <dbl> <dbl>   <dbl> <chr>      <chr>           <dbl>  <dbl>
 1         1     7    16  1977       2 NL         M                  32     NA
 2         2     7    16  1977       3 NL         M                  33     NA
 3         3     7    16  1977       2 DM         F                  37     NA
 4         4     7    16  1977       7 DM         M                  36     NA
 5         5     7    16  1977       3 DM         M                  35     NA
 6         6     7    16  1977       1 PF         M                  14     NA
 7         8     7    16  1977       1 DM         M                  37     NA
 8         9     7    16  1977       1 DM         F                  34     NA
 9        10     7    16  1977       6 PF         F                  20     NA
10        11     7    16  1977       5 DS         F                  53     NA
# ℹ 12,769 more rows
# ℹ 4 more variables: genus <chr>, species <chr>, taxa <chr>, plot_type <chr>
…
surveys_selected <- select(surveys, year, month, species_id, plot_id)

The pipe: %>%

What happens if we want to both select() and
filter() our data? We have a couple options. First, we
could use nested functions:

R

filter(select(surveys, -day), month >= 7)

OUTPUT

# A tibble: 8,244 × 12
   record_id month  year plot_id species_id sex   hindfoot_length weight genus
       <dbl> <dbl> <dbl>   <dbl> <chr>      <chr>           <dbl>  <dbl> <chr>
 1         1     7  1977       2 NL         M                  32     NA Neotoma
 2         2     7  1977       3 NL         M                  33     NA Neotoma
 3         3     7  1977       2 DM         F                  37     NA Dipodo…
 4         4     7  1977       7 DM         M                  36     NA Dipodo…
 5         5     7  1977       3 DM         M                  35     NA Dipodo…
 6         6     7  1977       1 PF         M                  14     NA Perogn…
 7         7     7  1977       2 PE         F                  NA     NA Peromy…
 8         8     7  1977       1 DM         M                  37     NA Dipodo…
 9         9     7  1977       1 DM         F                  34     NA Dipodo…
10        10     7  1977       6 PF         F                  20     NA Perogn…
# ℹ 8,234 more rows
# ℹ 3 more variables: species <chr>, taxa <chr>, plot_type <chr>
…
Nested functions can be very difficult to read with only a few
functions, and nearly impossible when many functions are done at once.
An alternative approach is to create intermediate
objects:

R

surveys_noday <- select(surveys, -day)
filter(surveys_noday, month >= 7)

OUTPUT

# A tibble: 8,244 × 12
   record_id month  year plot_id species_id sex   hindfoot_length weight genus
       <dbl> <dbl> <dbl>   <dbl> <chr>      <chr>           <dbl>  <dbl> <chr>
 1         1     7  1977       2 NL         M                  32     NA Neotoma
 2         2     7  1977       3 NL         M                  33     NA Neotoma
 3         3     7  1977       2 DM         F                  37     NA Dipodo…
 4         4     7  1977       7 DM         M                  36     NA Dipodo…
 5         5     7  1977       3 DM         M                  35     NA Dipodo…
 6         6     7  1977       1 PF         M                  14     NA Perogn…
 7         7     7  1977       2 PE         F                  NA     NA Peromy…
 8         8     7  1977       1 DM         M                  37     NA Dipodo…
 9         9     7  1977       1 DM         F                  34     NA Dipodo…
10        10     7  1977       6 PF         F                  20     NA Perogn…
# ℹ 8,234 more rows
# ℹ 3 more variables: species <chr>, taxa <chr>, plot_type <chr>
…
An elegant solution to this problem is an operator called the
pipe, which looks like %>%. You can
insert it by using the keyboard shortcut Shift+Cmd+M (Mac) or
Shift+Ctrl+M (Windows). Here’s how you could use a pipe to
select and filter in one step:

R

surveys %>% 
  select(-day) %>% 
  filter(month >= 7)

OUTPUT

# A tibble: 8,244 × 12
   record_id month  year plot_id species_id sex   hindfoot_length weight genus
       <dbl> <dbl> <dbl>   <dbl> <chr>      <chr>           <dbl>  <dbl> <chr>
 1         1     7  1977       2 NL         M                  32     NA Neotoma
 2         2     7  1977       3 NL         M                  33     NA Neotoma
 3         3     7  1977       2 DM         F                  37     NA Dipodo…
 4         4     7  1977       7 DM         M                  36     NA Dipodo…
 5         5     7  1977       3 DM         M                  35     NA Dipodo…
 6         6     7  1977       1 PF         M                  14     NA Perogn…
 7         7     7  1977       2 PE         F                  NA     NA Peromy…
 8         8     7  1977       1 DM         M                  37     NA Dipodo…
 9         9     7  1977       1 DM         F                  34     NA Dipodo…
10        10     7  1977       6 PF         F                  20     NA Perogn…
# ℹ 8,234 more rows
# ℹ 3 more variables: species <chr>, taxa <chr>, plot_type <chr>
…
Making new columns with mutate()

Another common task is creating a new column based on values in
existing columns. For example, we could add a new column that has the
weight in kilograms instead of grams:

R

surveys %>% 
  mutate(weight_kg = weight / 1000)

OUTPUT

# A tibble: 16,878 × 14
   record_id month   day  year plot_id species_id sex   hindfoot_length weight
       <dbl> <dbl> <dbl> <dbl>   <dbl> <chr>      <chr>           <dbl>  <dbl>
 1         1     7    16  1977       2 NL         M                  32     NA
 2         2     7    16  1977       3 NL         M                  33     NA
 3         3     7    16  1977       2 DM         F                  37     NA
 4         4     7    16  1977       7 DM         M                  36     NA
 5         5     7    16  1977       3 DM         M                  35     NA
 6         6     7    16  1977       1 PF         M                  14     NA
 7         7     7    16  1977       2 PE         F                  NA     NA
 8         8     7    16  1977       1 DM         M                  37     NA
 9         9     7    16  1977       1 DM         F                  34     NA
10        10     7    16  1977       6 PF         F                  20     NA
# ℹ 16,868 more rows
# ℹ 5 more variables: genus <chr>, species <chr>, taxa <chr>, plot_type <chr>,
#   weight_kg <dbl>

You can create multiple columns in one mutate() call,
and they will get created in the order you write them. This means you
can even reference the first new column in the second new column:

R

surveys %>% 
  mutate(weight_kg = weight / 1000,
         weight_lbs = weight_kg * 2.2)

OUTPUT

# A tibble: 16,878 × 15
   record_id month   day  year plot_id species_id sex   hindfoot_length weight
       <dbl> <dbl> <dbl> <dbl>   <dbl> <chr>      <chr>           <dbl>  <dbl>
 1         1     7    16  1977       2 NL         M                  32     NA
 2         2     7    16  1977       3 NL         M                  33     NA
 3         3     7    16  1977       2 DM         F                  37     NA
 4         4     7    16  1977       7 DM         M                  36     NA
 5         5     7    16  1977       3 DM         M                  35     NA
 6         6     7    16  1977       1 PF         M                  14     NA
 7         7     7    16  1977       2 PE         F                  NA     NA
 8         8     7    16  1977       1 DM         M                  37     NA
 9         9     7    16  1977       1 DM         F                  34     NA
10        10     7    16  1977       6 PF         F                  20     NA
# ℹ 16,868 more rows
# ℹ 6 more variables: genus <chr>, species <chr>, taxa <chr>, plot_type <chr>,
#   weight_kg <dbl>, weight_lbs <dbl>
…
To put together the columns into something that looks like a date, we
can use the paste() function, which takes arguments of the
items to paste together, as well as the argument sep, which
is the character used to separate the items.

R

surveys %>% 
  mutate(date = paste(year, month, day, sep = "-"))

OUTPUT

# A tibble: 16,878 × 14
   record_id month   day  year plot_id species_id sex   hindfoot_length weight
       <dbl> <dbl> <dbl> <dbl>   <dbl> <chr>      <chr>           <dbl>  <dbl>
 1         1     7    16  1977       2 NL         M                  32     NA
 2         2     7    16  1977       3 NL         M                  33     NA
 3         3     7    16  1977       2 DM         F                  37     NA
 4         4     7    16  1977       7 DM         M                  36     NA
 5         5     7    16  1977       3 DM         M                  35     NA
 6         6     7    16  1977       1 PF         M                  14     NA
 7         7     7    16  1977       2 PE         F                  NA     NA
 8         8     7    16  1977       1 DM         M                  37     NA
 9         9     7    16  1977       1 DM         F                  34     NA
10        10     7    16  1977       6 PF         F                  20     NA
# ℹ 16,868 more rows
# ℹ 5 more variables: genus <chr>, species <chr>, taxa <chr>, plot_type <chr>,
#   date <chr>

Since our new column gets moved all the way to the end, it doesn’t
end up printing out. We can use the relocate() function to
put it after our year column:

R

surveys %>% 
  mutate(date = paste(year, month, day, sep = "-")) %>% 
  relocate(date, .after = year)

OUTPUT

# A tibble: 16,878 × 14
   record_id month   day  year date     plot_id species_id sex   hindfoot_length
       <dbl> <dbl> <dbl> <dbl> <chr>      <dbl> <chr>      <chr>           <dbl>
 1         1     7    16  1977 1977-7-…       2 NL         M                  32
 2         2     7    16  1977 1977-7-…       3 NL         M                  33
 3         3     7    16  1977 1977-7-…       2 DM         F                  37
 4         4     7    16  1977 1977-7-…       7 DM         M                  36
 5         5     7    16  1977 1977-7-…       3 DM         M                  35
 6         6     7    16  1977 1977-7-…       1 PF         M                  14
 7         7     7    16  1977 1977-7-…       2 PE         F                  NA
 8         8     7    16  1977 1977-7-…       1 DM         M                  37
 9         9     7    16  1977 1977-7-…       1 DM         F                  34
10        10     7    16  1977 1977-7-…       6 PF         F                  20
# ℹ 16,868 more rows
# ℹ 5 more variables: weight <dbl>, genus <chr>, species <chr>, taxa <chr>,
#   plot_type <chr>
…
R

library(lubridate)

surveys %>% 
  mutate(date = paste(year, month, day, sep = "-"),
         date = ymd(date)) %>% 
  relocate(date, .after = year)

OUTPUT

# A tibble: 16,878 × 14
   record_id month   day  year date       plot_id species_id sex
       <dbl> <dbl> <dbl> <dbl> <date>       <dbl> <chr>      <chr>
 1         1     7    16  1977 1977-07-16       2 NL         M
 2         2     7    16  1977 1977-07-16       3 NL         M
 3         3     7    16  1977 1977-07-16       2 DM         F
 4         4     7    16  1977 1977-07-16       7 DM         M
 5         5     7    16  1977 1977-07-16       3 DM         M
 6         6     7    16  1977 1977-07-16       1 PF         M
 7         7     7    16  1977 1977-07-16       2 PE         F
 8         8     7    16  1977 1977-07-16       1 DM         M
 9         9     7    16  1977 1977-07-16       1 DM         F
10        10     7    16  1977 1977-07-16       6 PF         F
# ℹ 16,868 more rows
# ℹ 6 more variables: hindfoot_length <dbl>, weight <dbl>, genus <chr>,
#   species <chr>, taxa <chr>, plot_type <chr>
…
